cross validation
…
cv_df = 
  crossv_mc(nonlin_df, 100) # take a data set to do this 100 times #
  #there are two new column train and test # #80,20 is that is in this function#

cv_df %>% pull(train) %>% .[[1]] %>% as_tibble # we can change the number in [] to get different data set #

## # A tibble: 79 x 3
##       id      x       y
##    <int>  <dbl>   <dbl>
##  1     1 0.266   1.11  
##  2     2 0.372   0.764 
##  3     3 0.573   0.358 
##  4     4 0.908  -3.04  
##  5     6 0.898  -1.99  
##  6     7 0.945  -3.27  
##  7     8 0.661  -0.615 
##  8     9 0.629   0.0878
##  9    10 0.0618  0.392 
## 10    11 0.206   1.63  
## #  with 69 more rows

cv_df %>% pull(test) %>% .[[1]] %>% as_tibble

## # A tibble: 21 x 3
##       id      x      y
##    <int>  <dbl>  <dbl>
##  1     5 0.202   1.33 
##  2    12 0.177   0.836
##  3    19 0.380   0.982
##  4    22 0.212   0.710
##  5    28 0.382   0.932
##  6    31 0.482   0.498
##  7    37 0.794  -1.12 
##  8    42 0.647   0.158
##  9    47 0.0233 -0.148
## 10    56 0.0995  1.13 
## #  with 11 more rows
…
 cv_df %>%
  mutate(
    linear_mods = map(.x = train,~lm(y ~ x,data = .x)),
    smooth_mods = map(.x = train,~gam(y ~s(x),data = .x)),
     wiggly_mod  = map(train, ~gam(y ~ s(x, k = 30), sp = 10e-6, data = .x)),
    rmse_lin = map2_dbl(.x = linear_mods,.y = test,~rmse(.x,.y)),
    rmse_smooth = map2_dbl(smooth_mod, test, ~rmse(model = .x, data = .y)),
    rmse_wiggly = map2_dbl(wiggly_mod, test, ~rmse(model = .x, data = .y))
  )

## # A tibble: 100 x 12
##    train test  .id   linear_mod smooth_mod wiggly_mod rmse_linear
##    <lis> <lis> <chr> <list>     <list>     <list>           <dbl>
##  1 <tib <tib 001   <lm>       <gam>      <gam>            0.675
##  2 <tib <tib 002   <lm>       <gam>      <gam>            0.655
##  3 <tib <tib 003   <lm>       <gam>      <gam>            0.785
##  4 <tib <tib 004   <lm>       <gam>      <gam>            0.874
##  5 <tib <tib 005   <lm>       <gam>      <gam>            0.784
##  6 <tib <tib 006   <lm>       <gam>      <gam>            0.844
##  7 <tib <tib 007   <lm>       <gam>      <gam>            0.791
##  8 <tib <tib 008   <lm>       <gam>      <gam>            0.758
##  9 <tib <tib 009   <lm>       <gam>      <gam>            0.621
## 10 <tib <tib 010   <lm>       <gam>      <gam>            0.839
## #  with 90 more rows, and 5 more variables: rmse_smooth <dbl>,
## #   rmse_wiggly <dbl>, linear_mods <list>, smooth_mods <list>,
## #   rmse_lin <dbl>
…
